3_fish_temps
…
MWAT - maximum weekly average temperature. Maximum of 7-day rolling
average of mean daily temperatures

# one site-year that started on jd 172.
temp %>% 
  mutate(jd = format(sampleDate, "%j") %>% as.numeric()) %>% 
  group_by(StationName, YearSampled) %>% 
  summarize(minjd = min(jd))

## `summarise()` has grouped output by 'StationName'. You can override using the
## `.groups` argument.

## # A tibble: 31 x 3
## # Groups:   StationName [8]
##    StationName         YearSampled minjd
##    <chr>                     <dbl> <dbl>
##  1 Bear Creek                 2011   155
##  2 Bear Creek                 2013   152
##  3 Bear Creek                 2014   152
##  4 Bear Creek                 2016   154
##  5 Bear Creek                 2017   152
##  6 Bear Creek                 2018   153
##  7 Bear Creek                 2019   153
##  8 Bear Creek                 2020   158
##  9 Big Whitefish Creek        2011   155
## 10 Big Whitefish Creek        2013   152
## # ... with 21 more rows
…
